/*!
  \page BitIoLdd1 BitIoLdd1 (BitIO_LDD)
**         The HAL BitIO component provides a low level API for unified
**         access to general purpose digital input/output pins across
**         various device designs.
**
**         RTOS drivers using HAL BitIO API are simpler and more
**         portable to various microprocessors.
**

- \subpage BitIoLdd1_settings
- \subpage BitIoLdd1_regs_overview  
- \subpage BitIoLdd1_regs_details
- \ref BitIoLdd1_module "Component documentation" 
\page BitIoLdd1_regs_overview Registers Initialization Overview
This page contains the initialization values for the registers of the peripheral(s) configured
by the component. 
<table>
<tr><td colspan="4" class="ttitle1">BitIoLdd1 Initialization</td></tr>
<tr><td class="ttitle2">Address</td><td class="ttitle2">Register</td><td class="ttitle2">Register Value</td><td class="ttitle2">Register Description</td></tr>
<tr><td>0x400FF054</td><td>GPIOB_PDDR</td>
<td class="regNotResetVal">0x00200000</td>
 <td>GPIOB_PDDR register, peripheral BitIoLdd1.</td></tr>
<tr><td>0x400FF040</td><td>GPIOB_PDOR</td>
<td class="regResetVal">0x00000000</td>
 <td>GPIOB_PDOR register, peripheral BitIoLdd1.</td></tr>
<tr><td>0x4004A054</td><td>PORTB_PCR21</td>
<td class="regNotResetVal">0x00000100</td>
 <td>PORTB_PCR21 register, peripheral BitIoLdd1.</td></tr>
</table>
Color Denotes Reset Value
<br/>
\page BitIoLdd1_regs_details Register Initialization Details
This page contains detailed description of initialization values for the 
registers of the peripheral(s) configured by the component. 

<div class="reghdr1">GPIOB_PDDR</div>
<div class="regdiag">
<table class="regtbl">
<tr class="trd1r">
<td class="trd1c">Bit</td><td>31</td><td>30</td><td>29</td><td>28</td><td>27</td><td>26</td><td>25</td><td>24</td><td>23</td>
<td>22</td><td>21</td><td>20</td><td>19</td><td>18</td><td>17</td><td>16</td>
</tr>
<tr>
<td class="trd1c">R</td><td colspan="16" rowspan="2">PDD</td>
</tr>
<tr>
<td class="trd1c">W</td>
</tr>
<tr class="trd1r">
<td class="trd1c">Reset</td><td>0</td><td>0</td><td>0</td><td>0</td><td>0</td><td>0</td><td>0</td><td>0</td><td>0</td><td>0</td>
<td>0</td><td>0</td><td>0</td><td>0</td><td>0</td><td>0</td>
</tr>
</table>
<table class="regtbl">
<tr class="trd1r">
<td class="trd1c">Bit</td><td>15</td><td>14</td><td>13</td><td>12</td><td>11</td><td>10</td><td>9</td><td>8</td><td>7</td>
<td>6</td><td>5</td><td>4</td><td>3</td><td>2</td><td>1</td><td>0</td>
</tr>
<tr>
<td class="trd1c">R</td><td colspan="32" rowspan="2">PDD</td>
</tr>
<tr>
<td class="trd1c">W</td>
</tr>
<tr class="trd1r">
<td class="trd1c">Reset</td><td>0</td><td>0</td><td>0</td><td>0</td><td>0</td><td>0</td><td>0</td><td>0</td><td>0</td><td>0</td>
<td>0</td><td>0</td><td>0</td><td>0</td><td>0</td><td>0</td>
</tr>
</table>
        
</div>
<table class="regtbl2"><tr><td class="trowtit" colspan="2">Address</td><td colspan="2">0x400FF054</td></tr>
<tr class="trowtit"><td  class="trowtit" colspan="2">Initial value</td><td colspan="2">0x00200000</td></tr>
<tr class="trowtit"><td  class="trowtit" colspan="2">After-reset value</td><td colspan="2">0x00000000</td></tr>
<tr><td class="ttitle2">Bit</td><td class="ttitle2">Field</td><td class="ttitle2">Value</td><td class="ttitle2">Description</td></tr>
<tr><td>0 - 31</td><td>PDD</td><td>0x00</td><td>Port Data Direction</td>
</tr></table>
<div class="reghdr1">GPIOB_PDOR</div>
<div class="regdiag">
<table class="regtbl">
<tr class="trd1r">
<td class="trd1c">Bit</td><td>31</td><td>30</td><td>29</td><td>28</td><td>27</td><td>26</td><td>25</td><td>24</td><td>23</td>
<td>22</td><td>21</td><td>20</td><td>19</td><td>18</td><td>17</td><td>16</td>
</tr>
<tr>
<td class="trd1c">R</td><td colspan="16" rowspan="2">PDO</td>
</tr>
<tr>
<td class="trd1c">W</td>
</tr>
<tr class="trd1r">
<td class="trd1c">Reset</td><td>0</td><td>0</td><td>0</td><td>0</td><td>0</td><td>0</td><td>0</td><td>0</td><td>0</td><td>0</td>
<td>0</td><td>0</td><td>0</td><td>0</td><td>0</td><td>0</td>
</tr>
</table>
<table class="regtbl">
<tr class="trd1r">
<td class="trd1c">Bit</td><td>15</td><td>14</td><td>13</td><td>12</td><td>11</td><td>10</td><td>9</td><td>8</td><td>7</td>
<td>6</td><td>5</td><td>4</td><td>3</td><td>2</td><td>1</td><td>0</td>
</tr>
<tr>
<td class="trd1c">R</td><td colspan="32" rowspan="2">PDO</td>
</tr>
<tr>
<td class="trd1c">W</td>
</tr>
<tr class="trd1r">
<td class="trd1c">Reset</td><td>0</td><td>0</td><td>0</td><td>0</td><td>0</td><td>0</td><td>0</td><td>0</td><td>0</td><td>0</td>
<td>0</td><td>0</td><td>0</td><td>0</td><td>0</td><td>0</td>
</tr>
</table>
        
</div>
<table class="regtbl2"><tr><td class="trowtit" colspan="2">Address</td><td colspan="2">0x400FF040</td></tr>
<tr class="trowtit"><td  class="trowtit" colspan="2">Initial value</td><td colspan="2">0x00000000</td></tr>
<tr class="trowtit"><td  class="trowtit" colspan="2">After-reset value</td><td colspan="2">0x00000000</td></tr>
<tr><td class="ttitle2">Bit</td><td class="ttitle2">Field</td><td class="ttitle2">Value</td><td class="ttitle2">Description</td></tr>
<tr><td>0 - 31</td><td>PDO</td><td>0x00</td><td>Port Data Output</td>
</tr></table>
<div class="reghdr1">PORTB_PCR21</div>
<div class="regdiag">
<table class="regtbl">
<tr class="trd1r">
<td class="trd1c">Bit</td><td>31</td><td>30</td><td>29</td><td>28</td><td>27</td><td>26</td><td>25</td><td>24</td><td>23</td>
<td>22</td><td>21</td><td>20</td><td>19</td><td>18</td><td>17</td><td>16</td>
</tr>
<tr>
<td class="trd1c">R</td><td colspan="1" rowspan="2">-</td><td colspan="1" rowspan="2">-</td><td colspan="1" rowspan="2">-</td>
<td colspan="1" rowspan="2">-</td><td colspan="1" rowspan="2">-</td><td colspan="1" rowspan="2">-</td>
<td colspan="1" rowspan="2">-</td><td colspan="1" rowspan="2">ISF</td><td colspan="1" rowspan="2">-</td>
<td colspan="1" rowspan="2">-</td><td colspan="1" rowspan="2">-</td><td colspan="1" rowspan="2">-</td>
<td colspan="4" rowspan="2">IRQC</td>
</tr>
<tr>
<td class="trd1c">W</td>
</tr>
<tr class="trd1r">
<td class="trd1c">Reset</td><td>0</td><td>0</td><td>0</td><td>0</td><td>0</td><td>0</td><td>0</td><td>0</td><td>0</td><td>0</td>
<td>0</td><td>0</td><td>0</td><td>0</td><td>0</td><td>0</td>
</tr>
</table>
<table class="regtbl">
<tr class="trd1r">
<td class="trd1c">Bit</td><td>15</td><td>14</td><td>13</td><td>12</td><td>11</td><td>10</td><td>9</td><td>8</td><td>7</td>
<td>6</td><td>5</td><td>4</td><td>3</td><td>2</td><td>1</td><td>0</td>
</tr>
<tr>
<td class="trd1c">R</td><td colspan="1" rowspan="2">LK</td><td colspan="1" rowspan="2">-</td><td colspan="1" rowspan="2">-</td>
<td colspan="1" rowspan="2">-</td><td colspan="1" rowspan="2">-</td><td colspan="3" rowspan="2">MUX</td>
<td colspan="1" rowspan="2">-</td><td colspan="1" rowspan="2">DSE</td><td colspan="1" rowspan="2">ODE</td>
<td colspan="1" rowspan="2">PFE</td><td colspan="1" rowspan="2">-</td><td colspan="1" rowspan="2">SRE</td>
<td colspan="1" rowspan="2">PE</td><td colspan="1" rowspan="2">PS</td>
</tr>
<tr>
<td class="trd1c">W</td>
</tr>
<tr class="trd1r">
<td class="trd1c">Reset</td><td>0</td><td>0</td><td>0</td><td>0</td><td>0</td><td>0</td><td>0</td><td>0</td><td>0</td><td>0</td>
<td>0</td><td>0</td><td>0</td><td>0</td><td>0</td><td>0</td>
</tr>
</table>
        
</div>
<table class="regtbl2"><tr><td class="trowtit" colspan="2">Address</td><td colspan="2">0x4004A054</td></tr>
<tr class="trowtit"><td  class="trowtit" colspan="2">Initial value</td><td colspan="2">0x00000100</td></tr>
<tr class="trowtit"><td  class="trowtit" colspan="2">After-reset value</td><td colspan="2">0x00000000</td></tr>
<tr><td class="ttitle2">Bit</td><td class="ttitle2">Field</td><td class="ttitle2">Value</td><td class="ttitle2">Description</td></tr>
<tr><td>24</td><td>ISF</td><td>0x00</td><td>Interrupt Status Flag</td>
<tr><td>16 - 19</td><td>IRQC</td><td>0x00</td><td>Interrupt Configuration</td>
<tr><td>15</td><td>LK</td><td>0x00</td><td>Lock Register</td>
<tr><td>8 - 10</td><td>MUX</td><td>0x00</td><td>Pin Mux Control</td>
<tr><td>6</td><td>DSE</td><td>0x00</td><td>Drive Strength Enable</td>
<tr><td>5</td><td>ODE</td><td>0x00</td><td>Open Drain Enable</td>
<tr><td>4</td><td>PFE</td><td>0x00</td><td>Passive Filter Enable</td>
<tr><td>2</td><td>SRE</td><td>0x00</td><td>Slew Rate Enable</td>
<tr><td>1</td><td>PE</td><td>0x00</td><td>Pull Enable</td>
<tr><td>0</td><td>PS</td><td>0x00</td><td>Pull Select</td>
</tr></table>
*/
/*!
\page BitIoLdd1_settings Component Settings
\code
**          Component name                                 : BitIoLdd1
**          Pin for I/O                                    : PTB21/SPI2_SCK/FB_AD30/CMP1_OUT
**          Pin signal                                     : RfEnableOut
**          Direction                                      : Output
**          Initialization                                 : 
**            Init. direction                              : Output
**            Init. value                                  : 0
**            Auto initialization                          : yes
**          Safe mode                                      : yes
<h1>
\endcode
*/
